<svg width="11" height="6" viewBox="0 0 11 6" fill="none" xmlns="http://www.w3.org/2000/svg">
<path d="M5.50943 6C5.25482 6 5.01907 5.9034 4.83991 5.74534L0.275825 1.49506C-0.0919417 1.15258 -0.0919417 0.599341 0.275825 0.256861C0.643592 -0.0856202 1.23768 -0.0856202 1.60544 0.256861L5.5 3.88364L9.39456 0.256861C9.76232 -0.0856202 10.3564 -0.0856202 10.7242 0.256861C11.0919 0.599341 11.0919 1.15258 10.7242 1.49506L6.17895 5.74534C5.99979 5.91218 5.76404 6 5.50943 6Z" fill="#8898A7"/>
</svg>
