<svg width="8" height="9" viewBox="0 0 8 9" fill="none" xmlns="http://www.w3.org/2000/svg">
<path d="M0.0973005 0.597457C0.227031 0.467514 0.43737 0.467514 0.567101 0.597457L3.99999 4.0359L7.43291 0.597457C7.56263 0.467514 7.77298 0.467514 7.90271 0.597457C8.03243 0.727397 8.03243 0.938075 7.90271 1.06801L4.46982 4.50646L7.88982 7.932C8.01957 8.06193 8.01957 8.27262 7.88982 8.40255C7.76009 8.53248 7.54978 8.53248 7.42002 8.40255L3.99999 4.97701L0.57998 8.40255C0.45025 8.53248 0.23991 8.53248 0.11018 8.40255C-0.0195509 8.27262 -0.0195509 8.06193 0.11018 7.932L3.53019 4.50646L0.0973005 1.06801C-0.0324335 0.938075 -0.0324335 0.727397 0.0973005 0.597457Z" fill="#9A9F9F"/>
</svg>
